<?xml version="1.0" encoding="UTF-8" standalone="no"?>
<!-- Created with Inkscape (http://www.inkscape.org/) -->

<svg
   xmlns:dc="http://purl.org/dc/elements/1.1/"
   xmlns:cc="http://creativecommons.org/ns#"
   xmlns:rdf="http://www.w3.org/1999/02/22-rdf-syntax-ns#"
   xmlns:svg="http://www.w3.org/2000/svg"
   xmlns="http://www.w3.org/2000/svg"
   xmlns:sodipodi="http://sodipodi.sourceforge.net/DTD/sodipodi-0.dtd"
   xmlns:inkscape="http://www.inkscape.org/namespaces/inkscape"
   width="91.482521mm"
   height="122.83869mm"
   viewBox="0 0 91.482525 122.83869"
   version="1.1"
   id="svg8"
   inkscape:version="0.92.4 (5da689c313, 2019-01-14)"
   sodipodi:docname="sapper-logo-outline.svg">
  <defs
     id="defs2">
    <filter
       style="color-interpolation-filters:sRGB;"
       height="1.4"
       width="1.4"
       y="-0.2"
       x="-0.2"
       inkscape:label="Outline"
       id="filter3520">
      <feGaussianBlur
         in="SourceAlpha"
         stdDeviation="1.13243"
         result="blur1"
         id="feGaussianBlur3496" />
      <feComposite
         in="SourceGraphic"
         in2="blur1"
         operator="out"
         result="composite1"
         id="feComposite3498" />
      <feColorMatrix
         values="1 0 0 0 0 0 1 0 0 0 0 0 1 0 0 0 0 0 100 -8.29 "
         result="colormatrix1"
         id="feColorMatrix3500" />
      <feGaussianBlur
         stdDeviation="0.65"
         result="blur2"
         id="feGaussianBlur3502" />
      <feComposite
         in="blur2"
         in2="blur2"
         operator="atop"
         result="composite2"
         id="feComposite3504" />
      <feColorMatrix
         values="1 0 0 0 0 0 1 0 0 0 0 0 1 0 0 0 0 0 16.35 -5 "
         result="colormatrix2"
         id="feColorMatrix3506" />
      <feGaussianBlur
         stdDeviation="1"
         result="blur3"
         id="feGaussianBlur3508" />
      <feColorMatrix
         values="1 0 0 0 0 0 1 0 0 0 0 0 1 0 0 0 0 0 5 -1 "
         result="colormatrix3"
         id="feColorMatrix3510" />
      <feFlood
         flood-opacity="1"
         flood-color="rgb(0,0,0)"
         result="flood"
         id="feFlood3512" />
      <feComposite
         in="flood"
         in2="colormatrix3"
         k2="1"
         operator="in"
         result="composite3"
         id="feComposite3514" />
      <feComposite
         in="composite3"
         in2="colormatrix3"
         operator="out"
         result="composite4"
         id="feComposite3516" />
      <feComposite
         in="composite4"
         in2="composite3"
         k2="1"
         k3="1"
         operator="arithmetic"
         result="composite5"
         id="feComposite3518" />
    </filter>
  </defs>
  <sodipodi:namedview
     id="base"
     pagecolor="#ffffff"
     bordercolor="#666666"
     borderopacity="1.0"
     inkscape:pageopacity="0.0"
     inkscape:pageshadow="2"
     inkscape:zoom="0.49497475"
     inkscape:cx="-190.06085"
     inkscape:cy="-89.396555"
     inkscape:document-units="mm"
     inkscape:current-layer="layer1"
     showgrid="false"
     inkscape:window-width="1920"
     inkscape:window-height="1016"
     inkscape:window-x="0"
     inkscape:window-y="27"
     inkscape:window-maximized="1"
     fit-margin-top="0"
     fit-margin-left="0"
     fit-margin-right="0"
     fit-margin-bottom="0" />
  <metadata
     id="metadata5">
    <rdf:RDF>
      <cc:Work
         rdf:about="">
        <dc:format>image/svg+xml</dc:format>
        <dc:type
           rdf:resource="http://purl.org/dc/dcmitype/StillImage" />
        <dc:title></dc:title>
      </cc:Work>
    </rdf:RDF>
  </metadata>
  <g
     inkscape:label="Layer 1"
     inkscape:groupmode="layer"
     id="layer1"
     transform="translate(212.01482,-9.6419219)"
     style="display:inline;opacity:0.40963853">
    <path
       style="opacity:0.28060027;fill:#000080;fill-opacity:1;stroke:none;stroke-width:27.50118256;stroke-miterlimit:4.69999981;stroke-dasharray:none;stroke-opacity:1;filter:url(#filter3520)"
       id="path863"
       d="m -154.38958,66.559686 c 4.04896,-2.90402 7.97432,-6.019181 11.4886,-9.556661 2.02606,-2.31252 4.35996,-4.569994 5.4499,-7.505252 0.56942,-3.473612 -1.58484,-5.89174 -3.85546,-8.194416 -8.57026,-7.236136 -19.28616,-10.88019 -29.71226,-14.518956 -7.42192,-2.291252 -14.96982,-4.24269 -22.62776,-5.573328 -2.63388,-0.457674 -7.24116,-1.117012 -10.09548,-1.05138 -1.06718,0.02454 -2.11626,0.281454 -3.1744,0.42218 -8.55656,4.46302 7.98104,-4.978986 12.3782,-6.542982 0.85022,-0.30241 -0.57744,1.749704 -0.54596,2.651532 0.0538,1.540372 0.37714,3.071752 0.79752,4.554586 1.47952,5.218646 3.60202,9.1155 5.93132,14.071524 10.9247,20.880012 27.49678,37.884933 43.85462,54.544173 4.9373,5.00488 7.45832,7.4478 12.04134,12.483544 3.11262,3.42014 6.5852,7.07436 8.53272,11.35514 0.36286,0.79754 0.54218,1.6664 0.81328,2.49962 0.192,2.14918 -0.1808,4.2588 -2.2362,5.47302 -14.70584,8.68754 -13.8257,10.60922 -25.6656,10.80858 -11.48658,-0.1332 -22.43244,-3.35342 -33.1822,-7.08586 -4.589,-1.65656 -9.02778,-3.72336 -13.19272,-6.25978 0,0 15.55874,-10.0352 15.55874,-10.0352 v 0 c 3.95782,2.49818 8.15948,4.59446 12.56382,6.19668 10.64052,3.74254 21.55158,6.73824 32.95106,6.37408 1.35792,-0.136 2.73116,-0.1634 4.07378,-0.4079 1.07136,-0.1952 4.03168,-1.52954 3.13882,-0.90606 -4.3142,3.01254 -9.04856,5.37492 -13.51724,8.15316 -0.57258,0.35602 1.2628,-0.50256 1.82068,-0.8812 1.27068,-0.86234 1.07552,-1.17974 1.41936,-2.57868 -0.1658,-0.74322 -0.23434,-1.51518 -0.49788,-2.22968 -1.5603,-4.23072 -4.82856,-7.95524 -7.67154,-11.3293 -4.41792,-5.24314 -6.69228,-7.52936 -11.5438,-12.723724 -16.17012,-17.07776 -32.89578,-34.1311 -44.47648,-54.800033 -3.07318,-5.977242 -6.92264,-12.272448 -7.99054,-19.056764 -0.1826,-1.1602 -0.91166,-2.759028 -0.018,-3.523386 11.75852,-10.079442 11.23662,-9.680932 19.4654,-11.7338476 12.04534,-0.265194 24.14922,4.2404236 35.64038,7.2860276 10.79724,3.682638 22.0409,7.273874 30.93802,14.706174 2.99476,2.984244 4.88436,5.430408 5.00324,9.78253 -0.63968,3.384712 -3.01432,5.940474 -5.27788,8.421402 -3.26116,3.756394 -7.29474,6.749456 -11.17624,9.837056 0,0 -17.40118,6.873381 -17.40118,6.873381 z"
       inkscape:connector-curvature="0" />
  </g>
</svg>
